[[1485934482749,3,-105,11.25,-29.5766131,30.3641766,24,30.3641766,1,1485934482749,0,2,1485934489214,2,6465,2,0,0,3.839724354,-19.15,-16.07,3.16228E-07],
[1485934482749,3,-97,11.66,-29.5766131,30.3641766,24,30.3641766,1,1485934482749,0,2,1485934489214,2,6465,2,0,0,3.839724354,-19.15,-16.07,1.99526E-06],
[1485934485193,3,-100,12.79,-29.5766131,30.3641766,24,30.3641766,1,1485934482749,0,2,1485934489214,2,6465,2,2444,0.756071152,3.869657052,-18.66,-16.64,0.000001],
[1485934485193,3,-100,13.33,-29.5766131,30.3641766,24,30.3641766,1,1485934482749,0,2,1485934489214,2,6465,2,2444,0.756071152,3.869657052,-18.66,-16.64,0.000001],
[1485934492365,3,-103,14.7,-29.5766131,30.3641752,38,30.3641752,2,1485934489214,2,3,1485934532148,30,42934,28,3151,4.054968091,4.000259685,-16.34,-18.92,5.01187E-07],
[1485934494785,4,-105,19.43,-29.5766138,30.3641767,27,30.3641767,2,1485934489214,2,3,1485934532148,30,42934,28,5571,5.633204453,4.06274173,-15.12,-19.91,3.16228E-07],
[1485934502007,3,-95,14.65,-29.5765121,30.3639678,67.5,30.3639678,2,1485934489214,2,3,1485934532148,30,42934,28,12793,10.34313132,4.24920674,-11.17,-22.37,3.16228E-06],
[1485934512898,3,-93,11.25,-29.5763224,30.3635631,174.5839996,30.3635631,2,1485934489214,2,3,1485934532148,30,42934,28,23684,17.44584711,4.530401759,-4.52,-24.59,5.01187E-06],
[1485934523760,3,-97,12.07,-29.5792725,30.3634149,66.2460022,30.3634149,2,1485934489214,2,3,1485934532148,30,42934,28,34546,24.52965016,4.810848026,2.46,-24.88,1.99526E-06],
[1485934526247,3,-94,12.5,-29.5792725,30.3634149,98.57700348,30.3634149,2,1485934489214,2,3,1485934532148,30,42934,28,37033,26.1515815,4.875059945,4.05,-24.67,3.98107E-06],
[1485934526247,2,-96,12.94,-29.5792725,30.3634149,98.57700348,30.3634149,2,1485934489214,2,3,1485934532148,30,42934,28,37033,26.1515815,4.875059945,4.05,-24.67,2.51189E-06],
[1485934529798,2,-94,12.07,-29.5766144,30.3641793,26,30.3641793,2,1485934489214,2,3,1485934532148,30,42934,28,40584,28.4674151,4.966743309,6.29,-24.20,3.98107E-06],
[1485934532176,2,-96,12.5,-29.5766144,30.3641793,26,30.3641793,3,1485934532148,30,4,1485934533739,31,1591,1,28,30.01759899,5.028114762,7.76,-23.76,2.51189E-06],
[1485934533406,2,-92,12.07,-29.5766144,30.3641793,41.99000168,30.3641793,3,1485934532148,30,4,1485934533739,31,1591,1,1258,30.79069767,5.058721575,8.49,-23.52,6.30957E-06],
[1485934533406,3,-98,14.35,-29.5766144,30.3641793,41.99000168,30.3641793,3,1485934532148,30,4,1485934533739,31,1591,1,1258,30.79069767,5.058721575,8.49,-23.52,1.58489E-06],
[1485934537044,2,-95,12.07,-29.5765419,30.3609266,29,30.3609266,6,1485934536055,33,7,1485934537946,34,1891,1,989,33.5230037,5.166892994,10.98,-22.46,3.16228E-06],
[1485934539395,2,-99,12.24,-29.5765421,30.3609292,26,30.3609292,7,1485934537946,34,8,1485934539421,35,1475,1,1449,34.98237288,5.224669112,12.25,-21.79,1.25893E-06],
[1485934539395,2,-95,12.21,-29.5765421,30.3609292,26,30.3609292,7,1485934537946,34,8,1485934539421,35,1475,1,1449,34.98237288,5.224669112,12.25,-21.79,3.16228E-06],
[1485934541754,2,-92,12.56,-29.5765514,30.3614056,262,30.3614056,8,1485934539421,35,9,1485934546704,40,7283,5,2333,36.60167513,5.288776946,13.62,-20.96,6.30957E-06],
[1485934543093,2,-100,12.94,-29.5765514,30.3614056,279.4070129,30.3614056,8,1485934539421,35,9,1485934546704,40,7283,5,3672,37.52093917,5.325170416,14.38,-20.45,0.000001],
[1485934543093,2,-89,12.24,-29.5765514,30.3614056,279.4070129,30.3614056,8,1485934539421,35,9,1485934546704,40,7283,5,3672,37.52093917,5.325170416,14.38,-20.45,1.25893E-05],
[1485934546683,2,-92,12.35,-29.5787137,30.3635797,366,30.3635797,8,1485934539421,35,9,1485934546704,40,7283,5,7262,39.98558286,5.422745139,16.30,-18.95,6.30957E-06],
[1485934546683,2,-98,12.5,-29.5787137,30.3635797,366,30.3635797,8,1485934539421,35,9,1485934546704,40,7283,5,7262,39.98558286,5.422745139,16.30,-18.95,1.58489E-06],
[1485934549086,2,-92,12.31,-29.5766144,30.3641793,26,30.3641793,10,1485934548420,41,11,1485934550505,42,2085,1,666,41.31942446,5.475551646,17.28,-18.07,6.30957E-06],
[1485934549086,2,-98,12.56,-29.5766144,30.3641793,26,30.3641793,10,1485934548420,41,11,1485934550505,42,2085,1,666,41.31942446,5.475551646,17.28,-18.07,1.58489E-06],
[1485934550339,2,-97,12.69,-29.5766144,30.3641793,42.2879982,30.3641793,10,1485934548420,41,11,1485934550505,42,2085,1,1919,41.92038369,5.499343495,17.71,-17.65,1.99526E-06],
[1485934553949,2,-97,12.56,-29.576793,30.3643106,90,30.3643106,11,1485934550505,42,12,1485934563452,50,12947,8,3444,44.12806055,5.586744956,19.18,-16.04,1.99526E-06],
[1485934553949,2,-82,12.13,-29.576793,30.3643106,90,30.3643106,11,1485934550505,42,12,1485934563452,50,12947,8,3444,44.12806055,5.586744956,19.18,-16.04,6.30957E-05],
[1485934556346,2,-95,12.12,-29.5772583,30.3646554,64.5,30.3646554,11,1485934550505,42,12,1485934563452,50,12947,8,5841,45.60917587,5.645381999,20.09,-14.89,3.16228E-06],
[1485934556346,2,-95,11.97,-29.5772583,30.3646554,64.5,30.3646554,11,1485934550505,42,12,1485934563452,50,12947,8,5841,45.60917587,5.645381999,20.09,-14.89,3.16228E-06],
[1485934559284,2,-95,12.03,-29.5772583,30.3646554,64.5,30.3646554,11,1485934550505,42,12,1485934563452,50,12947,8,8779,47.42457712,5.717253351,21.10,-13.41,3.16228E-06],
[1485934559284,2,-94,11.79,-29.5772583,30.3646554,64.5,30.3646554,11,1485934550505,42,12,1485934563452,50,12947,8,8779,47.42457712,5.717253351,21.10,-13.41,3.98107E-06],
[1485934560194,2,-95,11.52,-29.5772583,30.3646554,76.33000183,30.3646554,11,1485934550505,42,12,1485934563452,50,12947,8,9689,47.98686955,5.73951439,21.40,-12.93,3.16228E-06],
[1485934563681,2,-96,11.61,-29.5767963,30.3641137,421.5,30.3641137,12,1485934563452,50,13,1485934571157,55,7705,5,229,50.1486048,5.825097032,22.42,-11.06,2.51189E-06],
[1485934563681,2,-93,11.7,-29.5767963,30.3641137,421.5,30.3641137,12,1485934563452,50,13,1485934571157,55,7705,5,229,50.1486048,5.825097032,22.42,-11.06,5.01187E-06],
[1485934564913,2,-98,11.97,-29.5767963,30.3641137,437.5029907,30.3641137,12,1485934563452,50,13,1485934571157,55,7705,5,1461,50.94808566,5.856748311,22.76,-10.34,1.58489E-06],
[1485934564913,2,-90,11.87,-29.5767963,30.3641137,437.5029907,30.3641137,12,1485934563452,50,13,1485934571157,55,7705,5,1461,50.94808566,5.856748311,22.76,-10.34,0.00001],
[1485934570873,2,-94,11.6,-29.5792738,30.3634146,43.5,30.3634146,12,1485934563452,50,13,1485934571157,55,7705,5,7421,54.81570409,6.009866508,24.07,-6.75,3.98107E-06],
[1485934570873,2,-99,11.6,-29.5792738,30.3634146,43.5,30.3634146,12,1485934563452,50,13,1485934571157,55,7705,5,7421,54.81570409,6.009866508,24.07,-6.75,1.25893E-06],
[1485934572144,2,-97,12.13,-29.5792738,30.3634146,60.02299881,30.3634146,13,1485934571157,55,14,1485934679438,135,108281,80,987,55.7292138,6.046032165,24.30,-5.87,1.99526E-06],
[1485934572144,2,-87,12.01,-29.5792738,30.3634146,60.02299881,30.3634146,13,1485934571157,55,14,1485934679438,135,108281,80,987,55.7292138,6.046032165,24.30,-5.87,1.99526E-05],
[1485934574549,2,-95,12.31,-29.5792738,30.3634146,91.28800201,30.3634146,13,1485934571157,55,14,1485934679438,135,108281,80,3392,57.50607216,6.116377612,24.65,-4.15,3.16228E-06],
[1485934578111,2,-98,12.64,-29.5766142,30.3641767,29,30.3641767,13,1485934571157,55,14,1485934679438,135,108281,80,6954,60.13774346,6.220564923,24.95,-1.56,1.58489E-06],
[1485934578111,2,-101,13.01,-29.5766142,30.3641767,29,30.3641767,13,1485934571157,55,14,1485934679438,135,108281,80,6954,60.13774346,6.220564923,24.95,-1.56,7.94328E-07],
[1485934587700,2,-96,13.73,-29.5766142,30.3641767,29,30.3641767,13,1485934571157,55,14,1485934679438,135,108281,80,16543,67.22227353,6.501039973,24.41,5.40,2.51189E-06],
[1485934587700,2,-101,13.98,-29.5766142,30.3641767,29,30.3641767,13,1485934571157,55,14,1485934679438,135,108281,80,16543,67.22227353,6.501039973,24.41,5.40,7.94328E-07],
[1485934590172,2,-102,14.4,-29.5766129,30.364177,23,30.364177,13,1485934571157,55,14,1485934679438,135,108281,80,19015,69.04863272,6.573345148,23.95,7.15,6.30957E-07],
[1485934590172,2,-98,14.98,-29.5766129,30.364177,23,30.364177,13,1485934571157,55,14,1485934679438,135,108281,80,19015,69.04863272,6.573345148,23.95,7.15,1.58489E-06],
[1485934592603,2,-98,14.99,-29.5766129,30.364177,23,30.364177,13,1485934571157,55,14,1485934679438,135,108281,80,21446,70.84470036,6.644451086,23.39,8.84,1.58489E-06],
[1485934594981,1,-91,9.09,-29.5766129,30.364177,23,30.364177,13,1485934571157,55,14,1485934679438,135,108281,80,23824,72.60161062,6.714006793,22.72,10.44,7.94328E-06],
[1485934599782,1,-87,7.87,-29.5766129,30.364177,23,30.364177,13,1485934571157,55,14,1485934679438,135,108281,80,28625,76.14867798,6.854434441,21.03,13.52,1.99526E-05],
[1485934602219,1,-98,9.09,-29.5766131,30.3641768,24,30.3641768,13,1485934571157,55,14,1485934679438,135,108281,80,31062,77.94917853,6.925715877,20.01,14.98,1.58489E-06],
[1485934604869,1,-98,12.64,-29.5768222,30.3644042,69.78700256,30.3644042,13,1485934571157,55,14,1485934679438,135,108281,80,33712,79.9070474,7.003227493,18.79,16.49,1.58489E-06],
[1485934607098,1,-92,11.86,-29.5767921,30.3643501,74.78299713,30.3643501,13,1485934571157,55,14,1485934679438,135,108281,80,35941,81.55387372,7.068424999,17.68,17.67,6.30957E-06],
[1485934611990,1,-94,11.74,-29.5768697,30.3644581,63.61500168,30.3644581,13,1485934571157,55,14,1485934679438,135,108281,80,40833,85.16817355,7.211514366,14.98,20.02,3.98107E-06],
[1485934614404,1,-92,11.9,-29.5766138,30.3641767,27,30.3641767,13,1485934571157,55,14,1485934679438,135,108281,80,43247,86.95168127,7.282123061,13.53,21.02,6.30957E-06],
[1485934616821,1,-94,12.31,-29.5766131,30.3641768,24,30.3641768,13,1485934571157,55,14,1485934679438,135,108281,80,45664,88.73740545,7.352819504,12.01,21.93,3.98107E-06],
[1485934619243,1,-103,12.79,-29.5770929,30.3645582,53.94800186,30.3645582,13,1485934571157,55,14,1485934679438,135,108281,80,48086,90.52682373,7.423662196,10.43,22.72,5.01187E-07],
[1485934621644,1,-95,13.24,-29.5771992,30.3646663,67.01100159,30.3646663,13,1485934571157,55,14,1485934679438,135,108281,80,50487,92.30072681,7.493890644,8.81,23.40,3.16228E-06],
[1485934621644,1,-96,12.94,-29.5771992,30.3646663,67.01100159,30.3646663,13,1485934571157,55,14,1485934679438,135,108281,80,50487,92.30072681,7.493890644,8.81,23.40,2.51189E-06],
[1485934624093,1,-102,13.59,-29.5771343,30.3646381,60.83399963,30.3646381,13,1485934571157,55,14,1485934679438,135,108281,80,52936,94.11009318,7.565523077,7.11,23.97,6.30957E-07],
[1485934624093,1,-94,13.07,-29.5771343,30.3646381,60.83399963,30.3646381,13,1485934571157,55,14,1485934679438,135,108281,80,52936,94.11009318,7.565523077,7.11,23.97,3.98107E-06],
[1485934626418,1,-101,13.63,-29.5771492,30.3646151,60.84600067,30.3646151,13,1485934571157,55,14,1485934679438,135,108281,80,55261,95.82784607,7.633528551,5.47,24.39,7.94328E-07],
[1485934628846,1,-91,13.97,-29.5771946,30.3646788,67.26499939,30.3646788,13,1485934571157,55,14,1485934679438,135,108281,80,57689,97.62169725,7.704546741,3.72,24.72,7.94328E-06],
[1485934631212,1,-99,14.13,-29.5772092,30.3646796,68.38999939,30.3646796,13,1485934571157,55,14,1485934679438,135,108281,80,60055,99.36974169,7.773751451,2.00,24.92,1.25893E-06],
[1485934631212,3,-95,12.07,-29.5772092,30.3646796,68.38999939,30.3646796,13,1485934571157,55,14,1485934679438,135,108281,80,60055,99.36974169,7.773751451,2.00,24.92,3.16228E-06],
[1485934631212,1,-99,14.35,-29.5772092,30.3646796,68.38999939,30.3646796,13,1485934571157,55,14,1485934679438,135,108281,80,60055,99.36974169,7.773751451,2.00,24.92,1.25893E-06],
[1485934633590,1,-99,14.42,-29.577204,30.364673,67.68800354,30.364673,13,1485934571157,55,14,1485934679438,135,108281,80,62433,101.126652,7.843307157,0.27,25.00,1.25893E-06],
[1485934633590,1,-87,13.99,-29.577204,30.364673,67.68800354,30.364673,13,1485934571157,55,14,1485934679438,135,108281,80,62433,101.126652,7.843307157,0.27,25.00,1.99526E-05],
[1485934636019,1,-102,14.19,-29.5771304,30.3645721,57.45299911,30.3645721,13,1485934571157,55,14,1485934679438,135,108281,80,64862,102.921242,7.914354597,-1.51,24.95,6.30957E-07],
[1485934636019,1,-93,14.12,-29.5771304,30.3645721,57.45299911,30.3645721,13,1485934571157,55,14,1485934679438,135,108281,80,64862,102.921242,7.914354597,-1.51,24.95,5.01187E-06],
[1485934638427,1,-89,13.53,-29.5771285,30.3646345,60.23099899,30.3646345,13,1485934571157,55,14,1485934679438,135,108281,80,67270,104.7003168,7.984787793,-3.26,24.79,1.25893E-05],
[1485934638427,4,-95,12.07,-29.5771285,30.3646345,60.23099899,30.3646345,13,1485934571157,55,14,1485934679438,135,108281,80,67270,104.7003168,7.984787793,-3.26,24.79,3.16228E-06],
[1485934640807,1,-98,13.81,-29.5771688,30.3646686,64.86399841,30.3646686,13,1485934571157,55,14,1485934679438,135,108281,80,69650,106.4587047,8.054401999,-4.98,24.50,1.58489E-06],
[1485934640807,1,-90,13.55,-29.5771688,30.3646686,64.86399841,30.3646686,13,1485934571157,55,14,1485934679438,135,108281,80,69650,106.4587047,8.054401999,-4.98,24.50,0.00001],
[1485934643216,1,-90,12.83,-29.5771702,30.364647,63.92499924,30.364647,13,1485934571157,55,14,1485934679438,135,108281,80,72059,108.2385183,8.124864445,-6.69,24.09,0.00001],
[1485934643216,1,-88,12.3,-29.5771702,30.364647,63.92499924,30.364647,13,1485934571157,55,14,1485934679438,135,108281,80,72059,108.2385183,8.124864445,-6.69,24.09,1.58489E-05],
[1485934645640,4,-91,12.07,-29.5768423,30.3643495,70.5,30.3643495,13,1485934571157,55,14,1485934679438,135,108281,80,74483,110.0294142,8.195765636,-8.38,23.55,7.94328E-06],
[1485934645640,1,-97,12.28,-29.5768423,30.3643495,70.5,30.3643495,13,1485934571157,55,14,1485934679438,135,108281,80,74483,110.0294142,8.195765636,-8.38,23.55,1.99526E-06],
[1485934648015,1,-97,12.37,-29.5768423,30.3643495,70.5,30.3643495,13,1485934571157,55,14,1485934679438,135,108281,80,76858,111.784108,8.265233593,-9.99,22.92,1.99526E-06],
[1485934648015,1,-88,12.07,-29.5768423,30.3643495,70.5,30.3643495,13,1485934571157,55,14,1485934679438,135,108281,80,76858,111.784108,8.265233593,-9.99,22.92,1.58489E-05],
[1485934650390,1,-99,12.22,-29.5766135,30.364177,28,30.364177,13,1485934571157,55,14,1485934679438,135,108281,80,79233,113.5388018,8.334701551,-11.56,22.17,1.25893E-06],
[1485934650390,1,-99,11.92,-29.5766135,30.364177,28,30.364177,13,1485934571157,55,14,1485934679438,135,108281,80,79233,113.5388018,8.334701551,-11.56,22.17,1.25893E-06],
[1485934652818,4,-99,12.94,-29.5769391,30.3644079,60,30.3644079,13,1485934571157,55,14,1485934679438,135,108281,80,81661,115.332653,8.40571974,-13.10,21.29,1.25893E-06],
[1485934652818,4,-93,12.41,-29.5769391,30.3644079,60,30.3644079,13,1485934571157,55,14,1485934679438,135,108281,80,81661,115.332653,8.40571974,-13.10,21.29,5.01187E-06],
[1485934655229,1,-91,12.34,-29.5768308,30.3643367,79.5,30.3643367,13,1485934571157,55,14,1485934679438,135,108281,80,84072,117.1139443,8.476240686,-14.57,20.31,7.94328E-06],
[1485934655229,1,-96,12.5,-29.5768308,30.3643367,79.5,30.3643367,13,1485934571157,55,14,1485934679438,135,108281,80,84072,117.1139443,8.476240686,-14.57,20.31,2.51189E-06],
[1485934657593,1,-95,12.5,-29.5768308,30.3643367,79.5,30.3643367,13,1485934571157,55,14,1485934679438,135,108281,80,86436,118.8605111,8.545386897,-15.94,19.26,3.16228E-06],
[1485934660012,1,-84,12.17,-29.5766884,30.3642273,36,30.3642273,13,1485934571157,55,14,1485934679438,135,108281,80,88855,120.6477129,8.616141839,-17.26,18.08,3.98107E-05],
[1485934660012,1,-95,12.28,-29.5766884,30.3642273,36,30.3642273,13,1485934571157,55,14,1485934679438,135,108281,80,88855,120.6477129,8.616141839,-17.26,18.08,3.16228E-06],
[1485934662348,1,-96,12.4,-29.5767489,30.3642737,48,30.3642737,13,1485934571157,55,14,1485934679438,135,108281,80,91191,122.3735928,8.68446906,-18.46,16.86,2.51189E-06],
[1485934662348,1,-88,12.32,-29.5767489,30.3642737,48,30.3642737,13,1485934571157,55,14,1485934679438,135,108281,80,91191,122.3735928,8.68446906,-18.46,16.86,1.58489E-05],
[1485934664861,1,-92,12.42,-29.5771722,30.3646389,63.69300079,30.3646389,13,1485934571157,55,14,1485934679438,135,108281,80,93704,124.2302435,8.757973471,-19.65,15.46,6.30957E-06],
[1485934664861,3,-97,12.94,-29.5771722,30.3646389,63.69300079,30.3646389,13,1485934571157,55,14,1485934679438,135,108281,80,93704,124.2302435,8.757973471,-19.65,15.46,1.99526E-06],
[1485934664861,4,-95,14.19,-29.5771722,30.3646389,63.69300079,30.3646389,13,1485934571157,55,14,1485934679438,135,108281,80,93704,124.2302435,8.757973471,-19.65,15.46,3.16228E-06],
[1485934667212,4,-94,13.51,-29.5768658,30.3642681,50,30.3642681,13,1485934571157,55,14,1485934679438,135,108281,80,96055,125.9672057,8.826739436,-20.66,14.08,3.98107E-06],
[1485934667212,1,-97,12.66,-29.5768658,30.3642681,50,30.3642681,13,1485934571157,55,14,1485934679438,135,108281,80,96055,125.9672057,8.826739436,-20.66,14.08,1.99526E-06],
[1485934667212,3,-93,12.5,-29.5768658,30.3642681,50,30.3642681,13,1485934571157,55,14,1485934679438,135,108281,80,96055,125.9672057,8.826739436,-20.66,14.08,5.01187E-06],
[1485934667212,3,-96,12.5,-29.5768658,30.3642681,50,30.3642681,13,1485934571157,55,14,1485934679438,135,108281,80,96055,125.9672057,8.826739436,-20.66,14.08,2.51189E-06],
[1485934667212,1,-99,12.75,-29.5768658,30.3642681,50,30.3642681,13,1485934571157,55,14,1485934679438,135,108281,80,96055,125.9672057,8.826739436,-20.66,14.08,1.25893E-06],
[1485934669675,3,-100,12.76,-29.5768361,30.3642231,50,30.3642231,13,1485934571157,55,14,1485934679438,135,108281,80,98518,127.7869155,8.898781364,-21.62,12.55,0.000001],
[1485934669675,3,-93,12.41,-29.5768361,30.3642231,50,30.3642231,13,1485934571157,55,14,1485934679438,135,108281,80,98518,127.7869155,8.898781364,-21.62,12.55,5.01187E-06],
[1485934669675,1,-92,13.19,-29.5768361,30.3642231,50,30.3642231,13,1485934571157,55,14,1485934679438,135,108281,80,98518,127.7869155,8.898781364,-21.62,12.55,6.30957E-06],
[1485934672056,1,-94,12.99,-29.5764878,30.3639253,55.5,30.3639253,13,1485934571157,55,14,1485934679438,135,108281,80,100899,129.5460422,8.96842482,-22.44,11.02,3.98107E-06],
[1485934672056,4,-91,13.57,-29.5764878,30.3639253,55.5,30.3639253,13,1485934571157,55,14,1485934679438,135,108281,80,100899,129.5460422,8.96842482,-22.44,11.02,7.94328E-06],
[1485934674473,1,-96,12.76,-29.576646,30.3641542,37.5,30.3641542,13,1485934571157,55,14,1485934679438,135,108281,80,103316,131.3317664,9.039121263,-23.16,9.40,2.51189E-06],
[1485934674473,4,-91,13.26,-29.576646,30.3641542,37.5,30.3641542,13,1485934571157,55,14,1485934679438,135,108281,80,103316,131.3317664,9.039121263,-23.16,9.40,7.94328E-06],
[1485934676896,1,-97,12.83,-29.5767312,30.3642675,37.5,30.3642675,13,1485934571157,55,14,1485934679438,135,108281,80,105739,133.1219235,9.109993204,-23.77,7.74,1.99526E-06],
[1485934676896,4,-94,13.36,-29.5767312,30.3642675,37.5,30.3642675,13,1485934571157,55,14,1485934679438,135,108281,80,105739,133.1219235,9.109993204,-23.77,7.74,3.98107E-06],
[1485934679352,3,-103,12.61,-29.5768313,30.364324,79.5,30.364324,13,1485934571157,55,14,1485934679438,135,108281,80,108195,134.9364616,9.181830385,-24.27,6.01,5.01187E-07],
[1485934679352,4,-90,13.2,-29.5768313,30.364324,79.5,30.364324,13,1485934571157,55,14,1485934679438,135,108281,80,108195,134.9364616,9.181830385,-24.27,6.01,0.00001],
[1485934679352,3,-102,12.76,-29.5768313,30.364324,79.5,30.364324,13,1485934571157,55,14,1485934679438,135,108281,80,108195,134.9364616,9.181830385,-24.27,6.01,6.30957E-07],
[1485934681736,4,-100,13.2,-29.5768313,30.364324,79.5,30.364324,14,1485934679438,135,15,1485934682632,136,3194,1,2298,135.719474,9.21282968,-24.44,5.26,0.000001],
[1485934684075,4,-97,13.4,-29.5765063,30.3639423,58.5,30.3639423,15,1485934682632,136,16,1485934689054,140,6422,4,1443,136.8987854,9.25951837,-24.66,4.11,1.99526E-06],
[1485934686545,1,-97,13.61,-29.5766972,30.3641589,51,30.3641589,15,1485934682632,136,16,1485934689054,140,6422,4,3913,138.437247,9.320425738,-24.86,2.60,1.99526E-06],
[1485934686545,4,-97,13.49,-29.5766972,30.3641589,51,30.3641589,15,1485934682632,136,16,1485934689054,140,6422,4,3913,138.437247,9.320425738,-24.86,2.60,1.99526E-06],
[1485934686545,4,-95,13.18,-29.5766972,30.3641589,51,30.3641589,15,1485934682632,136,16,1485934689054,140,6422,4,3913,138.437247,9.320425738,-24.86,2.60,3.16228E-06],
[1485934686545,1,-100,13.63,-29.5766972,30.3641589,51,30.3641589,15,1485934682632,136,16,1485934689054,140,6422,4,3913,138.437247,9.320425738,-24.86,2.60,0.000001],
[1485934688961,3,-94,11.99,-29.576701,30.3641631,51,30.3641631,15,1485934682632,136,16,1485934689054,140,6422,4,6329,139.9420741,9.380001527,-24.97,1.12,3.98107E-06],
[1485934691387,4,-95,12.75,-29.5769314,30.3644111,64.5,30.3644111,17,1485934690465,141,18,1485934692365,142,1900,1,922,141.4852632,9.441096055,-25.00,-0.41,3.16228E-06],
[1485934691387,1,-97,13.86,-29.5769314,30.3644111,64.5,30.3644111,17,1485934690465,141,18,1485934692365,142,1900,1,922,141.4852632,9.441096055,-25.00,-0.41,1.99526E-06],
[1485934693903,1,-96,13.55,-29.5766831,30.3641683,39,30.3641683,18,1485934692365,142,19,1485934706315,150,13950,8,1538,142.8820072,9.496392856,-24.94,-1.79,2.51189E-06],
[1485934693903,4,-96,12.94,-29.5766831,30.3641683,39,30.3641683,18,1485934692365,142,19,1485934706315,150,13950,8,1538,142.8820072,9.496392856,-24.94,-1.79,2.51189E-06],
[1485934693903,4,-92,12.7,-29.5766831,30.3641683,39,30.3641683,18,1485934692365,142,19,1485934706315,150,13950,8,1538,142.8820072,9.496392856,-24.94,-1.79,6.30957E-06],
[1485934696159,3,-101,12.53,-29.5766793,30.3641387,48,30.3641387,18,1485934692365,142,19,1485934706315,150,13950,8,3794,144.1757706,9.547612677,-24.81,-3.06,7.94328E-07],
[1485934696159,3,-95,12.6,-29.5766793,30.3641387,48,30.3641387,18,1485934692365,142,19,1485934706315,150,13950,8,3794,144.1757706,9.547612677,-24.81,-3.06,3.16228E-06],
[1485934698566,3,-99,12.67,-29.5767267,30.3642097,40.5,30.3642097,18,1485934692365,142,19,1485934706315,150,13950,8,6201,145.556129,9.602260776,-24.61,-4.41,1.25893E-06],
[1485934700990,3,-93,12.67,-29.5767324,30.3642076,42,30.3642076,18,1485934692365,142,19,1485934706315,150,13950,8,8625,146.9462366,9.65729484,-24.33,-5.76,5.01187E-06],
[1485934703422,4,-99,12.81,-29.5767459,30.3642144,39,30.3642144,18,1485934692365,142,19,1485934706315,150,13950,8,11057,148.3409319,9.712510534,-23.97,-7.09,1.25893E-06],
[1485934703422,4,-92,12.4,-29.5767459,30.3642144,39,30.3642144,18,1485934692365,142,19,1485934706315,150,13950,8,11057,148.3409319,9.712510534,-23.97,-7.09,6.30957E-06],
[1485934705850,4,-97,12.5,-29.5766541,30.3641639,36,30.3641639,18,1485934692365,142,19,1485934706315,150,13950,8,13485,149.7333333,9.767635412,-23.54,-8.40,1.99526E-06],
[1485934705850,3,-95,13.24,-29.5766541,30.3641639,36,30.3641639,18,1485934692365,142,19,1485934706315,150,13950,8,13485,149.7333333,9.767635412,-23.54,-8.40,3.16228E-06],
[1485934705850,3,-98,13.61,-29.5766541,30.3641639,36,30.3641639,18,1485934692365,142,19,1485934706315,150,13950,8,13485,149.7333333,9.767635412,-23.54,-8.40,1.58489E-06],
[1485934708199,3,-98,13.99,-29.576494,30.3639276,55.5,30.3639276,20,1485934708104,151,21,1485934709873,152,1769,1,95,151.0537027,9.819908555,-23.07,-9.62,1.58489E-06],
[1485934710609,4,-96,13.14,-29.5765524,30.3640463,70.5,30.3640463,21,1485934709873,152,22,1485934727825,160,17952,8,736,152.3279857,9.870357153,-22.56,-10.77,2.51189E-06],
[1485934710609,3,-92,13.66,-29.5765524,30.3640463,70.5,30.3640463,21,1485934709873,152,22,1485934727825,160,17952,8,736,152.3279857,9.870357153,-22.56,-10.77,6.30957E-06],
[1485934712986,4,-101,14.08,-29.5765769,30.364108,51,30.364108,21,1485934709873,152,22,1485934727825,160,17952,8,3113,153.3872549,9.912293396,-22.09,-11.71,7.94328E-07],
[1485934712986,4,-93,13.86,-29.5765769,30.364108,51,30.364108,21,1485934709873,152,22,1485934727825,160,17952,8,3113,153.3872549,9.912293396,-22.09,-11.71,5.01187E-06],
[1485934715370,3,-100,14.14,-29.5765869,30.364111,45,30.364111,21,1485934709873,152,22,1485934727825,160,17952,8,5497,154.4496435,9.954353136,-21.58,-12.63,0.000001],
[1485934717784,3,-100,14.21,-29.5765782,30.3641022,52.5,30.3641022,21,1485934709873,152,22,1485934727825,160,17952,8,7911,155.5254011,9.996942151,-21.02,-13.54,0.000001],
[1485934717784,4,-96,14.6,-29.5765782,30.3641022,52.5,30.3641022,21,1485934709873,152,22,1485934727825,160,17952,8,7911,155.5254011,9.996942151,-21.02,-13.54,2.51189E-06],
[1485934719006,3,-97,13.86,-29.5765782,30.3641022,68.39900208,30.3641022,21,1485934709873,152,22,1485934727825,160,17952,8,9133,156.0699643,10.0185013,-20.72,-13.99,1.99526E-06],
[1485934722571,3,-98,13.93,-29.576511,30.3639592,63,30.3639592,21,1485934709873,152,22,1485934727825,160,17952,8,12698,157.6586453,10.08139684,-19.80,-15.26,1.58489E-06],
[1485934724924,3,-99,13.86,-29.5765116,30.3639583,67.5,30.3639583,21,1485934709873,152,22,1485934727825,160,17952,8,15051,158.7072193,10.12290966,-19.15,-16.07,1.25893E-06]]