[[1485933140047,4,-90,6.45,-29.577172,30.3646608,99,30.3646608,1,1485933140047,0,2,1485933144563,1,4516,0.5000,0,0,0.698131701,3.83,3.21,0.00001],
[1485933140047,3,-88,9.23,-29.577172,30.3646608,99,30.3646608,1,1485933140047,0,2,1485933144563,1,4516,0.5000,0,0,0.698131701,3.83,3.21,1.58489E-05],
[1485933142479,2,-93,6.34,-29.5772066,30.3646846,68.43499756,30.3646846,1,1485933140047,0,2,1485933144563,1,4516,0.5000,2432,0.269264836,0.748579709,3.66,3.40,5.01187E-06],
[1485933142479,4,-87,6.74,-29.5772066,30.3646846,68.43499756,30.3646846,1,1485933140047,0,2,1485933144563,1,4516,0.5000,2432,0.269264836,0.748579709,3.66,3.40,1.99526E-05],
[1485933144820,1,-64,1.51,-29.5771952,30.3646713,66.9489975,30.3646713,2,1485933144563,1,3,1485933146323,1,1760,0.5000,257,0.573011364,0.80548802,3.46,3.61,0.003981072],
[1485933144820,2,-100,7.02,-29.5771952,30.3646713,66.9489975,30.3646713,2,1485933144563,1,3,1485933146323,1,1760,0.5000,257,0.573011364,0.80548802,3.46,3.61,0.000001],
[1485933144820,3,-93,10.49,-29.5771952,30.3646713,66.9489975,30.3646713,2,1485933144563,1,3,1485933146323,1,1760,0.5000,257,0.573011364,0.80548802,3.46,3.61,5.01187E-06],
[1485933144820,4,-78,6.85,-29.5771952,30.3646713,66.9489975,30.3646713,2,1485933144563,1,3,1485933146323,1,1760,0.5000,257,0.573011364,0.80548802,3.46,3.61,0.000158489],
[1485933147201,4,-92,7.17,-29.5766131,30.3641766,24,30.3641766,3,1485933146323,1,4,1485933147881,2,1558,0.5000,878,1.281771502,0.938277499,2.96,4.03,6.30957E-06],
[1485933147201,3,-94,11.14,-29.5766131,30.3641766,24,30.3641766,3,1485933146323,1,4,1485933147881,2,1558,0.5000,878,1.281771502,0.938277499,2.96,4.03,3.98107E-06],
[1485933149612,3,-96,11.66,-29.5766142,30.3641767,29,30.3641767,5,1485933149337,2,6,1485933151167,3,1830,0.5000,275,2.075136612,1.086918108,2.33,4.43,2.51189E-06],
[1485933149612,4,-84,7.03,-29.5766142,30.3641767,29,30.3641767,5,1485933149337,2,6,1485933151167,3,1830,0.5000,275,2.075136612,1.086918108,2.33,4.43,3.98107E-05],
[1485933152051,4,-86,7.04,-29.5768745,30.3644516,63.63299942,30.3644516,6,1485933151167,3,7,1485933152399,3,1232,0.5000,884,2.858766234,1.233734729,1.65,4.72,2.51189E-05],
[1485933152051,1,-85,1.8,-29.5768745,30.3644516,63.63299942,30.3644516,6,1485933151167,3,7,1485933152399,3,1232,0.5000,884,2.858766234,1.233734729,1.65,4.72,3.16228E-05],
[1485933154509,3,-83,11.7,-29.5767487,30.3643279,78.95700073,30.3643279,8,1485933154014,4,9,1485933155157,4,1143,0.5000,495,3.716535433,1.394441741,0.88,4.92,5.01187E-05],
[1485933154509,2,-94,10.79,-29.5767487,30.3643279,78.95700073,30.3643279,8,1485933154014,4,9,1485933155157,4,1143,0.5000,495,3.716535433,1.394441741,0.88,4.92,3.98107E-06],
[1485933156891,4,-88,5.67,-29.5771675,30.3646265,62.75999832,30.3646265,9,1485933155157,4,10,1485933157066,5,1909,0.5000,1734,4.454164484,1.532639943,0.19,5.00,1.58489E-05],
[1485933156891,1,-88,2.49,-29.5771675,30.3646265,62.75999832,30.3646265,9,1485933155157,4,10,1485933157066,5,1909,0.5000,1734,4.454164484,1.532639943,0.19,5.00,1.58489E-05],
[1485933159312,1,-97,2.66,-29.5771459,30.364609,60.31299973,30.364609,11,1485933158531,5,12,1485933160192,6,1661,0.5000,781,5.235099338,1.678951687,-0.54,4.97,1.99526E-06],
[1485933159312,3,-93,10.38,-29.5771459,30.364609,60.31299973,30.364609,11,1485933158531,5,12,1485933160192,6,1661,0.5000,781,5.235099338,1.678951687,-0.54,4.97,5.01187E-06],
[1485933159312,1,-87,2.81,-29.5771459,30.364609,60.31299973,30.364609,11,1485933158531,5,12,1485933160192,6,1661,0.5000,781,5.235099338,1.678951687,-0.54,4.97,1.99526E-05],
[1485933161679,4,-71,4.2,-29.5771561,30.364619,61.54899979,30.364619,12,1485933160192,6,13,1485933161785,6,1593,0.5000,1487,5.966729441,1.816025958,-1.21,4.85,0.000794328],
[1485933161679,3,-91,10.01,-29.5771561,30.364619,61.54899979,30.364619,12,1485933160192,6,13,1485933161785,6,1593,0.5000,1487,5.966729441,1.816025958,-1.21,4.85,7.94328E-06],
[1485933164145,4,-68,3.55,-29.5771564,30.3646151,61.39199829,30.3646151,14,1485933163401,7,15,1485933164519,7,1118,0.5000,744,6.83273703,1.978276471,-1.98,4.59,0.001584893],
[1485933164145,2,-93,11.97,-29.5771564,30.3646151,61.39199829,30.3646151,14,1485933163401,7,15,1485933164519,7,1118,0.5000,744,6.83273703,1.978276471,-1.98,4.59,5.01187E-06],
[1485933166609,2,-90,11.85,-29.5767394,30.3642675,40.5,30.3642675,15,1485933164519,7,16,1485933167534,8,3015,0.5000,2090,7.346600332,2.074551129,-2.41,4.38,0.00001],
[1485933166609,3,-82,9.29,-29.5767394,30.3642675,40.5,30.3642675,15,1485933164519,7,16,1485933167534,8,3015,0.5000,2090,7.346600332,2.074551129,-2.41,4.38,6.30957E-05],
[1485933166609,1,-91,5.7,-29.5767394,30.3642675,40.5,30.3642675,15,1485933164519,7,16,1485933167534,8,3015,0.5000,2090,7.346600332,2.074551129,-2.41,4.38,7.94328E-06],
[1485933166609,2,-90,11.66,-29.5767394,30.3642675,40.5,30.3642675,15,1485933164519,7,16,1485933167534,8,3015,0.5000,2090,7.346600332,2.074551129,-2.41,4.38,0.00001],
[1485933169027,3,-90,9.01,-29.576646,30.3641542,37.5,30.3641542,16,1485933167534,8,17,1485933169062,8,1528,0.5000,1493,7.98854712,2.194822818,-2.92,4.06,0.00001],
[1485933169027,2,-93,11.49,-29.576646,30.3641542,37.5,30.3641542,16,1485933167534,8,17,1485933169062,8,1528,0.5000,1493,7.98854712,2.194822818,-2.92,4.06,5.01187E-06],
[1.48593E+12,1,-98,6.74,-29.576646,30.3641542,37.5,30.3641542,16,1485933167534,8,17,1485933169062,8,1528,0.5000,1493,7.98854712,2.194822818,-2.92,4.06,1.58489E-06],
[1485933169027,4,-63,2.28,-29.576646,30.3641542,37.5,30.3641542,16,1485933167534,8,17,1485933169062,8,1528,0.5000,1493,7.98854712,2.194822818,-2.92,4.06,0.005011872],
[1485933169027,2,-90,10.94,-29.576646,30.3641542,37.5,30.3641542,16,1485933167534,8,17,1485933169062,8,1528,0.5000,1493,7.98854712,2.194822818,-2.92,4.06,0.00001],
[1485933171363,1,-90,7.95,-29.5766749,30.3641364,48,30.3641364,18,1485933170586,9,19,1485933171805,9,1219,0.5000,777,8.818703856,2.350356508,-3.51,3.56,0.00001],
[1485933171363,1,-88,8.16,-29.5766749,30.3641364,48,30.3641364,18,1485933170586,9,19,1485933171805,9,1219,0.5000,777,8.818703856,2.350356508,-3.51,3.56,1.58489E-05],
[1485933173887,1,-97,8.75,-29.5765436,30.3640341,72,30.3640341,20,1485933173106,10,21,1485933174123,10,1017,0.5000,781,9.883972468,2.549939491,-4.15,2.79,1.99526E-06],
[1485933173887,1,-81,8.75,-29.5765436,30.3640341,72,30.3640341,20,1485933173106,10,21,1485933174123,10,1017,0.5000,781,9.883972468,2.549939491,-4.15,2.79,7.94328E-05],
[1485933176312,4,-80,1.86,-29.576571,30.3640855,61.5,30.3640855,22,1485933175362,11,23,1485933176462,11,1100,0.5000,950,10.93181818,2.746258215,-4.61,1.93,0.0001],
[1485933176312,2,-94,9.93,-29.576571,30.3640855,61.5,30.3640855,22,1485933175362,11,23,1485933176462,11,1100,0.5000,950,10.93181818,2.746258215,-4.61,1.93,3.98107E-06],
[1485933178753,1,-92,9.98,-29.5765548,30.3640396,67.5,30.3640396,24,1485933177636,12,25,1485933178784,12,1148,0.5000,1117,11.98649826,2.943857387,-4.90,0.98,6.30957E-06],
[1485933178753,4,-93,1.97,-29.5765548,30.3640396,67.5,30.3640396,24,1485933177636,12,25,1485933178784,12,1148,0.5000,1117,11.98649826,2.943857387,-4.90,0.98,5.01187E-06],
[1485933181295,3,-71,6.26,-29.5766128,30.3641769,26,30.3641769,26,1485933180259,13,27,1485933181428,13,1169,0.5000,1036,12.94311377,3.123083712,-5.00,0.09,0.000794328],
[1485933181295,1,-97,10.49,-29.5766128,30.3641769,26,30.3641769,26,1485933180259,13,27,1485933181428,13,1169,0.5000,1036,12.94311377,3.123083712,-5.00,0.09,1.99526E-06],
[1485933183537,1,-98,10.65,-29.5764457,30.3638175,60,30.3638175,29,1485933183499,14,30,1485933184512,15,1013,0.5000,38,14.01875617,3.324610272,-4.92,-0.91,1.58489E-06],
[1485933183537,1,-97,10.84,-29.5764457,30.3638175,60,30.3638175,29,1485933183499,14,30,1485933184512,15,1013,0.5000,38,14.01875617,3.324610272,-4.92,-0.91,1.99526E-06],
[1485933185962,1,-99,11.11,-29.5764662,30.3638689,61.5,30.3638689,31,1485933185494,15,32,1485933186517,16,1023,0.5000,468,15.228739,3.551306132,-4.59,-1.99,1.25893E-06],
[1485933185962,1,-97,11.25,-29.5764662,30.3638689,61.5,30.3638689,31,1485933185494,15,32,1485933186517,16,1023,0.5000,468,15.228739,3.551306132,-4.59,-1.99,1.99526E-06],
[1485933188352,2,-90,10.12,-29.5764545,30.3638404,52.5,30.3638404,33,1485933187528,16,34,1485933188564,17,1036,0.5000,824,16.3976834,3.770313251,-4.04,-2.94,0.00001],
[1485933188352,3,-69,2.72,-29.5764545,30.3638404,52.5,30.3638404,33,1485933187528,16,34,1485933188564,17,1036,0.5000,824,16.3976834,3.770313251,-4.04,-2.94,0.001258925],
[1485933188352,4,-96,4.49,-29.5764545,30.3638404,52.5,30.3638404,33,1485933187528,16,34,1485933188564,17,1036,0.5000,824,16.3976834,3.770313251,-4.04,-2.94,2.51189E-06],
[1485933190751,2,-90,9.72,-29.5766129,30.364177,23,30.364177,36,1485933190577,18,37,1485933191560,18,983,0.5000,174,17.58850458,3.993419087,-3.29,-3.76,0.00001],
[1485933190751,4,-99,6.28,-29.5766129,30.364177,23,30.364177,36,1485933190577,18,37,1485933191560,18,983,0.5000,174,17.58850458,3.993419087,-3.29,-3.76,1.25893E-06],
[1485933190751,2,-88,9.28,-29.5766129,30.364177,23,30.364177,36,1485933190577,18,37,1485933191560,18,983,0.5000,174,17.58850458,3.993419087,-3.29,-3.76,1.58489E-05],
[1485933193227,4,-92,8.57,-29.5766135,30.364177,28,30.364177,38,1485933192577,19,39,1485933193526,19,949,0.5000,650,18.84246575,4.228354492,-2.33,-4.43,6.30957E-06],
[1485933193227,2,-77,8.16,-29.5766135,30.364177,28,30.364177,38,1485933192577,19,39,1485933193526,19,949,0.5000,650,18.84246575,4.228354492,-2.33,-4.43,0.000199526],
[1485933195647,4,-100,10.21,-29.5766138,30.3641767,27,30.3641767,40,1485933194712,20,41,1485933195852,20,1140,0.5000,935,19.91008772,4.428378387,-1.40,-4.80,0.000001],
[1485933195647,2,-74,7.45,-29.5766138,30.3641767,27,30.3641767,40,1485933194712,20,41,1485933195852,20,1140,0.5000,935,19.91008772,4.428378387,-1.40,-4.80,0.000398107],
[1485933195647,4,-89,11.62,-29.5766138,30.3641767,27,30.3641767,40,1485933194712,20,41,1485933195852,20,1140,0.5000,935,19.91008772,4.428378387,-1.40,-4.80,1.25893E-05],
[1485933197997,2,-83,6.71,-29.5766142,30.3641767,29,30.3641767,43,1485933197791,21,44,1485933198698,22,907,0.5000,206,21.11356119,4.653854688,-0.29,-4.99,5.01187E-05],
[1485933197997,3,-89,2.8,-29.5766142,30.3641767,29,30.3641767,43,1485933197791,21,44,1485933198698,22,907,0.5000,206,21.11356119,4.653854688,-0.29,-4.99,1.25893E-05],
[1485933197997,1,-93,12.67,-29.5766142,30.3641767,29,30.3641767,43,1485933197791,21,44,1485933198698,22,907,0.5000,206,21.11356119,4.653854688,-0.29,-4.99,5.01187E-06],
[1485933199210,1,-94,12.94,-29.5766142,30.3641767,44.76900101,30.3641767,44,1485933198698,22,45,1485933199701,22,1003,0.5000,512,21.7552343,4.774075102,0.31,-4.99,3.98107E-06],
[1485933199210,1,-98,12.94,-29.5766142,30.3641767,44.76900101,30.3641767,44,1485933198698,22,45,1485933199701,22,1003,0.5000,512,21.7552343,4.774075102,0.31,-4.99,1.58489E-06],
[1485933202836,4,-99,13.24,-29.5766142,30.3641767,29,30.3641767,48,1485933202577,24,49,1485933203488,24,911,0.5000,259,23.64215148,5.127597732,2.02,-4.58,1.25893E-06],
[1485933202836,2,-68,4.66,-29.5766142,30.3641767,29,30.3641767,48,1485933202577,24,49,1485933203488,24,911,0.5000,259,23.64215148,5.127597732,2.02,-4.58,0.001584893],
[1485933204088,3,-83,4.86,-29.5766142,30.3641767,45.27600098,30.3641767,49,1485933203488,24,50,1485933204403,25,915,0.5000,600,24.32786885,5.256070041,2.59,-4.28,5.01187E-05],
[1485933204088,2,-62,3.73,-29.5766142,30.3641767,45.27600098,30.3641767,49,1485933203488,24,50,1485933204403,25,915,0.5000,600,24.32786885,5.256070041,2.59,-4.28,0.006309573],
[1485933204088,1,-85,11.17,-29.5766142,30.3641767,45.27600098,30.3641767,49,1485933203488,24,50,1485933204403,25,915,0.5000,600,24.32786885,5.256070041,2.59,-4.28,3.16228E-05],
[1485933207607,2,-60,3.3,-29.5766129,30.364177,23,30.364177,53,1485933207117,26,54,1485933208132,27,1015,0.5000,490,26.24137931,5.614575044,3.92,-3.10,0.01],
[1485933207607,3,-87,7.87,-29.5766129,30.364177,23,30.364177,53,1485933207117,26,54,1485933208132,27,1015,0.5000,490,26.24137931,5.614575044,3.92,-3.10,1.99526E-05],
[1485933210035,2,-88,2.86,-29.5766142,30.3641767,29,30.3641767,56,1485933210005,28,57,1485933210976,28,971,0.5000,30,27.51544799,5.853277682,4.55,-2.08,1.58489E-05],
[1485933210035,1,-88,10.86,-29.5766142,30.3641767,29,30.3641767,56,1485933210005,28,57,1485933210976,28,971,0.5000,30,27.51544799,5.853277682,4.55,-2.08,1.58489E-05],
[1485933210035,1,-78,10.49,-29.5766142,30.3641767,29,30.3641767,56,1485933210005,28,57,1485933210976,28,971,0.5000,30,27.51544799,5.853277682,4.55,-2.08,0.000158489],
[1485933212672,1,-88,10.23,-29.5766142,30.3641767,29,30.3641767,58,1485933211824,29,59,1485933212751,29,927,0.5000,848,28.95738943,6.123432055,4.94,-0.80,1.58489E-05],
[1485933212672,4,-89,11.2,-29.5766142,30.3641767,29,30.3641767,58,1485933211824,29,59,1485933212751,29,927,0.5000,848,28.95738943,6.123432055,4.94,-0.80,1.25893E-05],
[1485933215101,1,-88,9.49,-29.5766138,30.3641767,27,30.3641767,61,1485933214976,30,62,1485933216196,31,1220,0.5000,125,30.05122951,6.328368035,4.99,0.23,1.58489E-05],
[1485933215101,4,-86,10.29,-29.5766138,30.3641767,27,30.3641767,61,1485933214976,30,62,1485933216196,31,1220,0.5000,125,30.05122951,6.328368035,4.99,0.23,2.51189E-05],
[1485933215101,1,-90,9.01,-29.5766138,30.3641767,27,30.3641767,61,1485933214976,30,62,1485933216196,31,1220,0.5000,125,30.05122951,6.328368035,4.99,0.23,0.00001],
[1485933217478,1,-90,8.79,-29.576925,30.3644989,57.61100006,30.3644989,63,1485933217314,31,64,1485933218331,32,1017,0.5000,164,31.0806293,6.52123083,4.86,1.18,0.00001],
[1485933217478,3,-85,9.8,-29.576925,30.3644989,57.61100006,30.3644989,63,1485933217314,31,64,1485933218331,32,1017,0.5000,164,31.0806293,6.52123083,4.86,1.18,3.16228E-05],
[1485933218721,3,-95,10.12,-29.576925,30.3644989,73.78299713,30.3644989,64,1485933218331,32,65,1485933219617,32,1286,0.5000,390,31.65163297,6.628210999,4.71,1.69,3.16228E-06],
[1485933218721,2,-101,4.31,-29.576925,30.3644989,73.78299713,30.3644989,64,1485933218331,32,65,1485933219617,32,1286,0.5000,390,31.65163297,6.628210999,4.71,1.69,7.94328E-07],
[1485933218721,1,-84,6.72,-29.576925,30.3644989,73.78299713,30.3644989,64,1485933218331,32,65,1485933219617,32,1286,0.5000,390,31.65163297,6.628210999,4.71,1.69,3.98107E-05],
[1485933222235,1,-73,6.03,-29.5768963,30.3644771,60.75799942,30.3644771,66,1485933220886,33,67,1485933222514,33,1628,0.5000,1349,32.91431204,6.864779741,4.18,2.75,0.000501187],
[1485933222235,4,-96,9.45,-29.5768963,30.3644771,60.75799942,30.3644771,66,1485933220886,33,67,1485933222514,33,1628,0.5000,1349,32.91431204,6.864779741,4.18,2.75,2.51189E-06],
[1485933222235,1,-70,5.66,-29.5768963,30.3644771,60.75799942,30.3644771,66,1485933220886,33,67,1485933222514,33,1628,0.5000,1349,32.91431204,6.864779741,4.18,2.75,0.001],
[1485933224615,1,-90,5.39,-29.5766131,30.3641768,24,30.3641768,68,1485933224242,34,69,1485933229376,34,5134,0.5000,373,33.53632645,6.981317008,3.83,3.21,0.00001]]